
    {
        "mcu453ed": [
            {
                "id": "qwsa221",
                "name": "Mind"
            },
            {
                "id": "jwkh245",
                "name": "Space"
            },
            {
                "id": "azxs123",
                "name": "Soul"
            },
            {
                "id": "cffv432",
                "name": "Time"
            },
            {
                "id": "ghnb768",
                "name": "Power"
            },
            {
                "id": "isks839",
                "name": "Reality"
            }
        ],
        "abc122dc": [
            {
                "id": "xyzb778",
                "name": "Flight"
            },
            {
                "id": "llkj123",
                "name": "Telepathy"
            },
            {
                "id": "ghyu556",
                "name": "Telekinesis"
            }
        ]
    }


